Division,WeightClassKg,Place,Name,Team,BodyweightKg,Best3SquatKg,Best3BenchKg,Best3DeadliftKg,TotalKg,Equipment,Event,Sex,BirthDate
Boys,51.71,1,Luis Garcia #9,Sharyland Pioneer,49.94,133.81,74.84,145.15,353.8,Single-ply,SBD,M,
Boys,51.71,2,Jesus Guerrero,Mission Sharyland,47.13,117.93,61.23,147.42,326.59,Single-ply,SBD,M,
Boys,51.71,3,Victor Vasquez,Sharyland Pioneer,51.26,102.06,61.23,124.74,288.03,Single-ply,SBD,M,
Boys,51.71,4,Alex Guajardo #1,La Joya,49.4,113.4,47.63,120.2,281.23,Single-ply,SBD,M,
Boys,51.71,5,Dante Silva,Mission Sharyland,43,104.33,54.43,111.13,269.89,Single-ply,SBD,M,
Boys,55.79,1,Jesus Puente,La Joya Palmview,54.39,172.37,111.13,183.7,467.2,Single-ply,SBD,M,
Boys,55.79,2,Juan R Martinez,Mission Veterans Memorial,55.66,156.49,79.38,163.29,399.16,Single-ply,SBD,M,
Boys,55.79,3,Rolando Roldan,McAllen,53.16,138.35,70.31,136.08,344.73,Single-ply,SBD,M,
Boys,55.79,4,Gael Gonzalez,La Joya Palmview,53.25,120.2,68.04,124.74,312.98,Single-ply,SBD,M,
Boys,59.87,1,Patricio Chavez,Mission Sharyland,59.01,199.58,106.59,199.58,505.76,Single-ply,SBD,M,
Boys,59.87,2,Mario Perez,Weslaco,59.83,190.51,108.86,185.97,485.34,Single-ply,SBD,M,
Boys,59.87,3,Michael Tamez,La Joya Palmview,59.65,165.56,113.4,197.31,476.27,Single-ply,SBD,M,
Boys,59.87,4,Marcelo Velasco,Mission Sharyland,59.56,149.69,81.65,158.76,390.09,Single-ply,SBD,M,
Boys,59.87,5,Tomas Franco Olvera,McAllen Rowe,57.42,102.06,70.31,129.27,301.64,Single-ply,SBD,M,
Boys,59.87,6,Isaiah Alvarado,McAllen Memorial,59.38,92.99,74.84,113.4,281.23,Single-ply,SBD,M,
Boys,59.87,DQ,Giovanni Salazar,La Joya,59.83,210.92,,,,Single-ply,SBD,M,
Boys,59.87,DQ,Nathan Lazo,Weslaco,58.92,,,,,Single-ply,SBD,M,
Boys,59.87,DQ,Jesus Coronado,Sharyland Pioneer,59.06,122.47,,,,Single-ply,SBD,M,
Boys,67.13,1,Mario Marquez,Mission,66.54,242.67,115.67,226.8,585.13,Single-ply,SBD,M,
Boys,67.13,2,Fernando Briones,McAllen Memorial,67.13,204.12,142.88,197.31,544.31,Single-ply,SBD,M,
Boys,67.13,3,Justin Chairez,McAllen Memorial,66.54,195.04,122.47,195.04,512.56,Single-ply,SBD,M,
Boys,67.13,4,Fern Martinez,Weslaco,61.46,181.44,111.13,183.7,476.27,Single-ply,SBD,M,
Boys,67.13,5,Alexander Lomas,McAllen Rowe,65.86,167.83,111.13,190.51,469.47,Single-ply,SBD,M,
Boys,67.13,6,Joe Montoya,La Joya,64.09,190.51,83.91,192.78,467.2,Single-ply,SBD,M,
Boys,67.13,7,Kameron Maples,McAllen Memorial,65.68,161.03,111.13,185.97,458.13,Single-ply,SBD,M,
Boys,67.13,8,Ej Garcia,Rio Grande City,66.22,183.7,113.4,151.95,449.06,Single-ply,SBD,M,
Boys,67.13,9,Adan Elizondo,La Joya,67.09,154.22,117.93,172.37,444.52,Single-ply,SBD,M,
Boys,67.13,10,Anthony Trevino,Rio Grande City Grulla,62.91,142.88,83.91,190.51,417.3,Single-ply,SBD,M,
Boys,67.13,11,Sam Gracia,Weslaco,66.04,154.22,99.79,158.76,412.77,Single-ply,SBD,M,
Boys,67.13,12,Brandon Lopez,Mission Sharyland,66.9,149.69,92.99,163.29,405.97,Single-ply,SBD,M,
Boys,67.13,13,Alexandro Gonzalez,McAllen,62.41,154.22,95.25,154.22,403.7,Single-ply,SBD,M,
Boys,67.13,14,Fernando Cavazos,La Joya Palmview,63.59,154.22,102.06,142.88,399.16,Single-ply,SBD,M,
Boys,67.13,15,Joseph Graham,Sharyland Pioneer,62.51,147.42,86.18,158.76,392.36,Single-ply,SBD,M,
Boys,67.13,16,Diego Mendez,McAllen,63.32,136.08,79.38,158.76,374.21,Single-ply,SBD,M,
Boys,67.13,17,Elui Padilla,La Joya Juarez-Lincoln,62.01,120.2,65.77,136.08,322.05,Single-ply,SBD,M,
Boys,67.13,18,Rocky Guerrero,Mission Veterans Memorial,64.91,108.86,70.31,142.88,322.05,Single-ply,SBD,M,
Boys,67.13,19,Brandon Arredondo,Rio Grande City,64.86,106.59,77.11,106.59,290.3,Single-ply,SBD,M,
Boys,67.13,DQ,Hugo Rodriguez,McAllen,62.32,224.53,127.01,,,Single-ply,SBD,M,
Boys,74.84,1,Fabaian Rodriguez,McAllen Memorial,74.34,226.8,127.01,215.46,569.26,Single-ply,SBD,M,
Boys,74.84,2,Luis De Hoyos,Mission Veterans Memorial,74.16,210.92,115.67,206.38,532.97,Single-ply,SBD,M,
Boys,74.84,3,Fidencio Ortega,La Joya Juarez-Lincoln,67.99,190.51,127.01,176.9,494.42,Single-ply,SBD,M,
Boys,74.84,4,Brian Pena,Rio Grande City,71.21,190.51,120.2,183.7,494.42,Single-ply,SBD,M,
Boys,74.84,5,Leonardo Perez,Mission,71.94,163.29,111.13,210.92,485.34,Single-ply,SBD,M,
Boys,74.84,6,Carlos Arjona,La Joya Palmview,68.31,183.7,102.06,183.7,469.47,Single-ply,SBD,M,
Boys,74.84,7,Humberto Serna,Sharyland Pioneer,72.17,151.95,99.79,188.24,439.98,Single-ply,SBD,M,
Boys,74.84,8,Angel Cantu,La Joya Palmview,71.26,188.24,83.91,161.03,433.18,Single-ply,SBD,M,
Boys,74.84,9,Hector Rivera,Rio Grande City,73.94,158.76,104.33,156.49,419.57,Single-ply,SBD,M,
Boys,74.84,10,Jorge Robles,Sharyland Pioneer,72.94,145.15,97.52,167.83,410.5,Single-ply,SBD,M,
Boys,74.84,11,Alonso F Bravo,Mission Veterans Memorial,68.17,133.81,113.4,140.61,387.82,Single-ply,SBD,M,
Boys,74.84,12,Braulio Garza,Rio Grande City Grulla,69.08,147.42,92.99,136.08,376.48,Single-ply,SBD,M,
Boys,74.84,13,Cesar Benavides,Sharyland Pioneer,71.17,140.61,79.38,154.22,374.21,Single-ply,SBD,M,
Boys,74.84,14,Jaime Garza,Rio Grande City,71.67,120.2,83.91,129.27,333.39,Single-ply,SBD,M,
Boys,82.1,1,Armando Resendez,McAllen Memorial,81.33,226.8,142.88,192.78,562.45,Single-ply,SBD,M,
Boys,82.1,2,Mauricio Sanchez,Mission Sharyland,78.34,192.78,136.08,213.19,542.04,Single-ply,SBD,M,
Boys,82.1,3,Elian Padilla,La Joya Juarez-Lincoln,81.01,208.65,122.47,201.85,532.97,Single-ply,SBD,M,
Boys,82.1,4,Gonzalo Perez,Mission,82.1,190.51,131.54,206.38,528.44,Single-ply,SBD,M,
Boys,82.1,5,Raymond Villegas,La Joya,79.61,192.78,113.4,192.78,498.95,Single-ply,SBD,M,
Boys,82.1,6,Sergio Perez,Mission Sharyland,80.47,192.78,111.13,192.78,496.68,Single-ply,SBD,M,
Boys,82.1,7,Sergio Lerma,Weslaco,76.79,192.78,99.79,197.31,489.88,Single-ply,SBD,M,
Boys,82.1,8,Victor Carbajal,Mission Sharyland,80.97,174.63,92.99,185.97,453.59,Single-ply,SBD,M,
Boys,82.1,9,Jose Rodriguez #10,Rio Grande City,77.11,158.76,111.13,181.44,451.32,Single-ply,SBD,M,
Boys,82.1,10,Felix D Villarreal,Mission Veterans Memorial,79.2,149.69,95.25,206.38,451.32,Single-ply,SBD,M,
Boys,82.1,11,Nicolas Meehan,McAllen Rowe,76.25,181.44,102.06,161.03,444.52,Single-ply,SBD,M,
Boys,82.1,12,Michael A De Leon,Mission Veterans Memorial,78.29,158.76,81.65,170.1,410.5,Single-ply,SBD,M,
Boys,82.1,DQ,Andrew Torres,Sharyland Pioneer,80.74,185.97,,,,Single-ply,SBD,M,
Boys,89.81,1,Larry Strickland,Weslaco,88.95,272.16,133.81,249.48,655.44,Single-ply,SBD,M,
Boys,89.81,2,Rolando Briseno,McAllen,85.55,235.87,163.29,208.65,607.81,Single-ply,SBD,M,
Boys,89.81,3,Albertico Garza,La Joya,84.05,231.33,102.06,217.72,551.11,Single-ply,SBD,M,
Boys,89.81,4,Francisco Castillo,Mission Veterans Memorial,89.72,208.65,127.01,201.85,537.51,Single-ply,SBD,M,
Boys,89.81,5,Moises Pena,Rio Grande City Grulla,86.91,226.8,120.2,188.24,535.24,Single-ply,SBD,M,
Boys,89.81,6,Jose Hinojosa,Mission,87.14,215.46,129.27,165.56,510.29,Single-ply,SBD,M,
Boys,89.81,7,Devon Gonzalez,Rio Grande City,89.81,188.24,122.47,183.7,494.42,Single-ply,SBD,M,
Boys,89.81,8,Mauricio Galindo,Mission Sharyland,89.13,183.7,129.27,170.1,483.08,Single-ply,SBD,M,
Boys,89.81,9,Angel Olvera,La Joya,87,188.24,90.72,183.7,462.66,Single-ply,SBD,M,
Boys,89.81,10,Aaron D Longoria,Mission Veterans Memorial,88.27,231.33,20.41,204.12,455.86,Single-ply,SBD,M,
Boys,89.81,DQ,Daniel Gonzalez,Mission Sharyland,88.68,170.1,,,,Single-ply,SBD,M,
Boys,99.79,1,Albert Vargas,La Joya Palmview,99.34,219.99,163.29,219.99,603.28,Single-ply,SBD,M,
Boys,99.79,2,Cristian Hernandez #1,Mission,97.89,231.33,136.08,226.8,594.21,Single-ply,SBD,M,
Boys,99.79,3,Erasmo Garces,Weslaco,99.65,217.72,138.35,226.8,582.87,Single-ply,SBD,M,
Boys,99.79,4,Daniel Alejandro,McAllen Rowe,99.43,222.26,131.54,208.65,562.45,Single-ply,SBD,M,
Boys,99.79,5,Erik Flores,La Joya Juarez-Lincoln,99.79,226.8,124.74,201.85,553.38,Single-ply,SBD,M,
Boys,99.79,6,Zac Compean,Rio Grande City,96.62,206.38,131.54,195.04,532.97,Single-ply,SBD,M,
Boys,99.79,7,Zeke Cuadros,Mission,92.08,195.04,122.47,192.78,510.29,Single-ply,SBD,M,
Boys,99.79,8,Joey Cavazos,McAllen Rowe,98.79,183.7,120.2,183.7,487.61,Single-ply,SBD,M,
Boys,99.79,9,Abelino Lopez,Rio Grande City Grulla,95.71,170.1,102.06,183.7,455.86,Single-ply,SBD,M,
Boys,99.79,10,Ezequiel Coronado,La Joya,98.38,163.29,102.06,183.7,449.06,Single-ply,SBD,M,
Boys,99.79,11,Rene Garcia,La Joya Juarez-Lincoln,93.8,156.49,113.4,156.49,426.38,Single-ply,SBD,M,
Boys,99.79,12,Juan Villarreal #3,Sharyland Pioneer,89.99,151.95,102.06,170.1,424.11,Single-ply,SBD,M,
Boys,99.79,13,Gabrel Dougherty,McAllen Rowe,90.4,117.93,77.11,138.35,333.39,Single-ply,SBD,M,
Boys,109.77,1,Steven Pedraza,McAllen,109.09,247.21,165.56,238.14,650.91,Single-ply,SBD,M,
Boys,109.77,2,Christopher Casiano,Mission Veterans Memorial,108.09,210.92,147.42,201.85,560.19,Single-ply,SBD,M,
Boys,109.77,3,Kris Garza,Rio Grande City,108.41,217.72,131.54,208.65,557.92,Single-ply,SBD,M,
Boys,109.77,4,Gonzalo Montalvo,Rio Grande City Grulla,107.59,226.8,129.27,197.31,553.38,Single-ply,SBD,M,
Boys,109.77,5,Rusbel Alanis,Rio Grande City Grulla,106.91,206.38,127.01,206.38,539.77,Single-ply,SBD,M,
Boys,109.77,6,Kaleb Garza,Rio Grande City,108.41,204.12,127.01,208.65,539.77,Single-ply,SBD,M,
Boys,109.77,7,Edwin Roldan,McAllen,109.23,210.92,120.2,204.12,535.24,Single-ply,SBD,M,
Boys,109.77,8,Erik Flores,La Joya Palmview,100.52,197.31,113.4,201.85,512.56,Single-ply,SBD,M,
Boys,109.77,9,Andrew Reyes,Weslaco,106.78,204.12,124.74,183.7,512.56,Single-ply,SBD,M,
Boys,109.77,10,Anthony Celis,McAllen Rowe,103.56,188.24,117.93,199.58,505.76,Single-ply,SBD,M,
Boys,109.77,11,Joshua Herrera,McAllen,101.65,195.04,102.06,183.7,480.81,Single-ply,SBD,M,
Boys,109.77,12,Houston Torres,Mission,106,185.97,108.86,183.7,478.54,Single-ply,SBD,M,
Boys,109.77,13,Fausto Anaya,McAllen Rowe,109.68,195.04,99.79,183.7,478.54,Single-ply,SBD,M,
Boys,109.77,14,Jj Johnson,McAllen Memorial,105.82,199.58,108.86,151.95,460.4,Single-ply,SBD,M,
Boys,124.74,1,Rolando Morales,Weslaco,122.24,249.48,170.1,231.33,650.91,Single-ply,SBD,M,
Boys,124.74,2,Ezequiel Chavez,La Joya,120.97,263.08,161.03,219.99,644.1,Single-ply,SBD,M,
Boys,124.74,3,Thomas Santillan,Weslaco,124.47,249.48,136.08,219.99,605.55,Single-ply,SBD,M,
Boys,124.74,4,Alex Mendiola,La Joya Palmview,124.65,233.6,140.61,217.72,591.94,Single-ply,SBD,M,
Boys,124.74,5,Diego Ochoa,Mission Sharyland,114.31,256.28,124.74,197.31,578.33,Single-ply,SBD,M,
Boys,124.74,6,Daniel Roman,Sharyland Pioneer,114.44,231.33,142.88,197.31,571.53,Single-ply,SBD,M,
Boys,124.74,7,Jose Molina #3,McAllen,114.21,226.8,147.42,192.78,566.99,Single-ply,SBD,M,
Boys,124.74,8,Joey Gonzalez,McAllen Memorial,124.06,229.06,133.81,174.63,537.51,Single-ply,SBD,M,
Boys,124.74,9,Alex Guerra,McAllen Memorial,111.9,226.8,120.2,188.24,535.24,Single-ply,SBD,M,
Boys,124.74,10,Lupe Baza,Rio Grande City Grulla,124.01,158.76,122.47,163.29,444.52,Single-ply,SBD,M,
Boys,124.74,11,Thomas Domian,McAllen Memorial,118.3,158.76,106.59,158.76,424.11,Single-ply,SBD,M,
Boys,124.74,DQ,John Garza,Rio Grande City Grulla,123.56,,,,,Single-ply,SBD,M,
Boys,124.74,DQ,Israel Nicanor,Sharyland Pioneer,110.5,,,,,Single-ply,SBD,M,
Boys,124.74+,1,Sergio Reyna,McAllen Memorial,132.59,308.44,188.24,226.8,723.48,Single-ply,SBD,M,
Boys,124.74+,2,Raul Martinez,Weslaco,129.5,285.76,174.63,226.8,687.19,Single-ply,SBD,M,
Boys,124.74+,3,Steven Alvarez,Mission,129.5,265.35,165.56,238.14,669.05,Single-ply,SBD,M,
Boys,124.74+,4,Isreal Monsivaiz,La Joya Juarez-Lincoln,125.01,244.94,161.03,235.87,641.83,Single-ply,SBD,M,
Boys,124.74+,5,Anthony Ortiz,Rio Grande City,127.01,210.92,149.69,226.8,587.4,Single-ply,SBD,M,
Boys,124.74+,6,Jimmy Talamantes,McAllen Rowe,136.03,242.67,131.54,192.78,566.99,Single-ply,SBD,M,
Boys,124.74+,7,Jacob Mata,McAllen Rowe,151.27,210.92,167.83,188.24,566.99,Single-ply,SBD,M,
Boys,124.74+,8,Roman Vallejo,Mission,159.39,238.14,120.2,208.65,566.99,Single-ply,SBD,M,
Boys,124.74+,9,Aalok Zimmerman,McAllen Rowe,133.36,219.99,151.95,188.24,560.19,Single-ply,SBD,M,
Boys,124.74+,10,Isais Garcia,La Joya Palmview,164.11,183.7,81.65,183.7,449.06,Single-ply,SBD,M,
Boys,124.74+,DQ,Carlos Martinez #23,Mission,143.97,217.72,,,,Single-ply,SBD,M,
Boys,124.74+,DQ,Cory Villegas,McAllen,127.37,231.33,108.86,,,Single-ply,SBD,M,
