Division,WeightClassKg,Place,Name,Team,BodyweightKg,Best3SquatKg,Best3BenchKg,Best3DeadliftKg,TotalKg,Equipment,Event,Sex,BirthDate
Boys,55.79,1,Yves Pham,Alvin Shadow Creek,55.34,161.03,106.59,192.78,460.4,Unlimited,SBD,M,
Boys,55.79,2,Carlos Gamez,Hitchcock,55.07,167.83,92.99,174.63,435.45,Unlimited,SBD,M,
Boys,55.79,3,Hector Ortiz,Hitchcock,55.7,81.65,61.23,106.59,249.48,Unlimited,SBD,M,
Boys,59.87,1,Trey England,Freeport Brazosport,57.61,133.81,86.18,165.56,385.55,Unlimited,SBD,M,
Boys,59.87,2,Alex Garibaldi,Freeport Brazosport,58.51,122.47,58.97,133.81,315.25,Unlimited,SBD,M,
Boys,67.13,1,Manny Williams,Freeport Brazosport,66.68,183.7,131.54,188.24,503.49,Unlimited,SBD,M,
Boys,67.13,2,Adriano Garza,Alvin Shadow Creek,66.22,197.31,92.99,183.7,474,Unlimited,SBD,M,
Boys,67.13,3,Javion Overton,Beaumont United,67.13,172.37,122.47,167.83,462.66,Unlimited,SBD,M,
Boys,67.13,4,Aaron Thomas,Manvel,66.22,154.22,92.99,176.9,424.11,Unlimited,SBD,M,
Boys,67.13,5,Dennis Triplett,Hitchcock,65.32,127.01,86.18,142.88,356.07,Unlimited,SBD,M,
Boys,67.13,6,Trace Tucker,Alvin Iowa Colony,63.05,102.06,65.77,147.42,315.25,Unlimited,SBD,M,
Boys,74.84,1,Ignacio Gomez,Manvel,68.95,165.56,117.93,197.31,480.81,Unlimited,SBD,M,
Boys,74.84,2,Julian Johnson,Manvel,71.67,165.56,117.93,192.78,476.27,Unlimited,SBD,M,
Boys,74.84,3,Adrian Porter,Alvin Iowa Colony,73.48,185.97,83.91,195.04,464.93,Unlimited,SBD,M,
Boys,74.84,4,Criss Acuna,Freeport Brazosport,74.84,185.97,102.06,172.37,460.4,Unlimited,SBD,M,
Boys,74.84,5,Argenis Picasso,Hitchcock,74.3,158.76,88.45,158.76,405.97,Unlimited,SBD,M,
Boys,82.1,1,Paul Winfrey,Beaumont United,81.19,226.8,127.01,226.8,580.6,Unlimited,SBD,M,
Boys,82.1,2,Jared Dotson,Hitchcock,77.11,199.58,124.74,204.12,528.44,Unlimited,SBD,M,
Boys,82.1,3,Jasun Payne,Alvin Shadow Creek,81.19,183.7,108.86,226.8,519.36,Unlimited,SBD,M,
Boys,82.1,4,Arinze Chukwumerije,Alvin Shadow Creek,81.19,172.37,108.86,222.26,503.49,Unlimited,SBD,M,
Boys,82.1,5,Ina Jackson,Alvin Shadow Creek,76.66,181.44,106.59,210.92,498.95,Unlimited,SBD,M,
Boys,82.1,6,Henry Kalu,Alvin Iowa Colony,82.1,188.24,106.59,192.78,487.61,Unlimited,SBD,M,
Boys,82.1,7,Korleon Comeaux,Beaumont United,80.29,163.29,129.27,158.76,451.32,Unlimited,SBD,M,
Boys,82.1,8,Ryan Phillips,Manvel,81.65,149.69,104.33,165.56,419.57,Unlimited,SBD,M,
Boys,82.1,9,Juelz Jordan,Alvin Shadow Creek,80.74,145.15,102.06,161.03,408.23,Unlimited,SBD,M,
Boys,89.81,1,Cameron Harris,Stafford,88,238.14,158.76,226.8,623.69,Unlimited,SBD,M,
Boys,89.81,2,Chiduwem Nwakamma,Manvel,89.81,231.33,122.47,229.06,582.87,Unlimited,SBD,M,
Boys,89.81,3,Ayden Salcedo,Manvel,88,172.37,102.06,210.92,485.34,Unlimited,SBD,M,
Boys,89.81,4,David Morales,Hitchcock,88.9,158.76,102.06,167.83,428.64,Unlimited,SBD,M,
Boys,89.81,5,Johnathan Avila,Stafford,88.45,136.08,106.59,156.49,399.16,Unlimited,SBD,M,
Boys,99.79,1,Nicholas Robinson,Manvel,92.53,256.28,142.88,265.35,664.51,Unlimited,SBD,M,
Boys,99.79,2,Juilan Alvarez,Freeport Brazosport,99.79,219.99,127.01,204.12,551.11,Unlimited,SBD,M,
Boys,99.79,3,Kameron Marks,Beaumont United,96.62,195.04,120.2,206.38,521.63,Unlimited,SBD,M,
Boys,99.79,4,Thomas Rhoads,Manvel,97.07,185.97,120.2,199.58,505.76,Unlimited,SBD,M,
Boys,109.77,1,Andre McDaniel,Alvin Shadow Creek,103.87,272.16,161.03,254.01,687.19,Unlimited,SBD,M,
Boys,109.77,2,Aidan Oliver,Alvin Shadow Creek,105.23,213.19,136.08,235.87,585.13,Unlimited,SBD,M,
Boys,109.77,3,Jeremiah Stevens,Beaumont United,104.78,226.8,142.88,213.19,582.87,Unlimited,SBD,M,
Boys,109.77,4,Michael Howard,Alvin Iowa Colony,109.77,226.8,129.27,222.26,578.33,Unlimited,SBD,M,
Boys,109.77,5,Robert Boysen,Hitchcock,108.32,204.12,151.95,195.04,551.11,Unlimited,SBD,M,
Boys,109.77,6,Jamari Cooper,Hitchcock,106.5,210.92,120.2,163.29,494.42,Unlimited,SBD,M,
Boys,109.77,7,Robert Williams,Hitchcock,103.33,181.44,111.13,197.31,489.88,Unlimited,SBD,M,
Boys,109.77,8,Noah Cantu,Manvel,104.33,195.04,108.86,183.7,487.61,Unlimited,SBD,M,
Boys,109.77,DQ,Zavier R Presley,Alvin Shadow Creek,108.86,176.9,95.25,,,Unlimited,SBD,M,
Boys,109.77,DQ,Christian Gladney,Beaumont United,109.77,226.8,165.56,,,Unlimited,SBD,M,
Boys,124.74,1,Larry Brooks,Manvel,114.76,306.17,149.69,267.62,723.48,Unlimited,SBD,M,
Boys,124.74,2,Albert Ruben,Hitchcock,120.11,272.16,154.22,226.8,653.17,Unlimited,SBD,M,
Boys,124.74,3,Max Rodriguez,Freeport Brazosport,119.29,258.55,172.37,213.19,644.1,Unlimited,SBD,M,
Boys,124.74,4,Jaxon Timon,Manvel,119.29,224.53,133.81,235.87,594.21,Unlimited,SBD,M,
Boys,124.74,5,Daniel Swiney,Alvin Iowa Colony,122.02,235.87,111.13,208.65,555.65,Unlimited,SBD,M,
Boys,124.74,6,Jaikuis Kenebrew,Beaumont United,123.83,238.14,99.79,217.72,555.65,Unlimited,SBD,M,
Boys,124.74,7,Daniel Enriquez,Freeport Brazosport,115.67,204.12,115.67,201.85,521.63,Unlimited,SBD,M,
Boys,124.74,8,John Hines,Hitchcock,110.31,204.12,102.06,204.12,510.29,Unlimited,SBD,M,
Boys,124.74,9,Chukwuemeka Tasie,Alvin Iowa Colony,113.85,188.24,111.13,174.63,474,Unlimited,SBD,M,
Boys,124.74,DQ,Jacob Vega,Alvin Iowa Colony,124.28,215.46,,,,Unlimited,SBD,M,
Boys,124.74,DQ,Brandon Avila,Stafford,118.84,147.42,108.86,,,Unlimited,SBD,M,
Boys,139.71,1,Dylan Williams,Stafford,135.71,235.87,154.22,235.87,625.96,Unlimited,SBD,M,
Boys,139.71,2,Edward Taylor,Beaumont United,136.98,226.8,136.08,233.6,596.47,Unlimited,SBD,M,
Boys,139.71,3,John Mendoza,Freeport Brazosport,131.09,272.16,106.59,190.51,569.26,Unlimited,SBD,M,
Boys,139.71,4,Zion Cooper,Beaumont United,139.71,226.8,151.95,190.51,569.26,Unlimited,SBD,M,
Boys,139.71,DQ,Noah Smith,Alvin Iowa Colony,132,163.29,108.86,,,Unlimited,SBD,M,
Boys,139.71,DQ,Tyson Windham,Alvin Iowa Colony,129.73,213.19,120.2,,,Unlimited,SBD,M,
Boys,139.71,DQ,Landon Guidry,Hitchcock,127.1,192.78,,,,Unlimited,SBD,M,
Boys,139.71,DQ,Josiah Johnson,Manvel,130.63,204.12,142.88,,,Unlimited,SBD,M,
Boys,139.71+,1,Chase Murry,Alvin Shadow Creek,144.7,226.8,124.74,215.46,566.99,Unlimited,SBD,M,
Boys,139.71+,DQ,Nicholas Ibarra,Stafford,152.41,147.42,,,,Unlimited,SBD,M,
