Division,WeightClassKg,Place,Name,Team,BodyweightKg,Best3SquatKg,Best3BenchKg,Best3DeadliftKg,TotalKg,Equipment,Event,Sex,BirthDate
Boys,51.71,DQ,Trevor Karisch,Waller,51.71,,,,,Unlimited,SBD,M,
Boys,59.87,1,Joseph Berry,Houston Stratford,59.87,165.56,102.06,165.56,433.18,Unlimited,SBD,M,
Boys,59.87,DQ,Jonathan Johnson,Fort Bend Willowridge,59.87,,,,,Unlimited,SBD,M,
Boys,67.13,1,Marcus Cruz,Waller,64.41,142.88,61.23,156.49,360.61,Unlimited,SBD,M,
Boys,67.13,2,Jonathan Perez,Houston Spring Woods,67.13,111.13,65.77,136.08,312.98,Unlimited,SBD,M,
Boys,67.13,3,Donvan Iles,Fort Bend Willowridge,67.13,97.52,68.04,124.74,290.3,Unlimited,SBD,M,
Boys,67.13,4,Elias Joya,Houston Northbrook,67.13,95.25,56.7,113.4,265.35,Unlimited,SBD,M,
Boys,74.84,1,Emilio Ordonez,Houston Northbrook,74.84,142.88,115.67,190.51,449.06,Unlimited,SBD,M,
Boys,74.84,2,Matthew Builes,Fort Bend Elkins,74.84,165.56,106.59,170.1,442.25,Unlimited,SBD,M,
Boys,74.84,3,Dominique Chavez,Waller,74.84,142.88,79.38,142.88,365.14,Unlimited,SBD,M,
Boys,74.84,4,Alexis Torres #1,Houston Spring Woods,74.84,102.06,61.23,129.27,292.57,Unlimited,SBD,M,
Boys,74.84,5,Jonah Tritt,Houston Stratford,74.84,88.45,56.7,102.06,247.21,Unlimited,SBD,M,
Boys,82.1,1,Noah Trevino,Fort Bend Elkins,82.1,235.87,136.08,204.12,576.06,Unlimited,SBD,M,
Boys,82.1,2,Joseph Netter,Houston Stratford,82.1,192.78,124.74,195.04,512.56,Unlimited,SBD,M,
Boys,82.1,3,Tylon Rydolph,Fort Bend Willowridge,82.1,183.7,92.99,208.65,485.34,Unlimited,SBD,M,
Boys,82.1,4,Willis Stewart,Fort Bend Willowridge,82.1,142.88,108.86,142.88,394.63,Unlimited,SBD,M,
Boys,82.1,5,William Stewart,Fort Bend Willowridge,82.1,131.54,108.86,149.69,390.09,Unlimited,SBD,M,
Boys,89.81,1,Justin Ramos,Fort Bend Elkins,89.81,185.97,124.74,199.58,510.29,Unlimited,SBD,M,
Boys,89.81,2,Eris Arrue,Houston Spring Woods,89.81,185.97,106.59,183.7,476.27,Unlimited,SBD,M,
Boys,89.81,3,Rafael Cedillo,Houston Spring Woods,89.81,145.15,95.25,192.78,433.18,Unlimited,SBD,M,
Boys,89.81,4,Daurin Fortin,Houston Northbrook,89.81,147.42,117.93,163.29,428.64,Unlimited,SBD,M,
Boys,89.81,5,Hugo Guzman,Houston Northbrook,89.81,136.08,99.79,136.08,371.95,Unlimited,SBD,M,
Boys,89.81,6,Joseph Bartel,Fort Bend Elkins,89.81,136.08,83.91,142.88,362.87,Unlimited,SBD,M,
Boys,89.81,7,Daniel Goswick,Houston Northbrook,89.81,122.47,68.04,124.74,315.25,Unlimited,SBD,M,
Boys,89.81,8,Juan Cuellar,Houston Northbrook,89.81,117.93,65.77,106.59,290.3,Unlimited,SBD,M,
Boys,99.79,1,Alexander Cruz,Houston Northbrook,99.79,190.51,104.33,190.51,485.34,Unlimited,SBD,M,
Boys,99.79,2,Bjorn Lundgren,Waller,99.79,183.7,90.72,179.17,453.59,Unlimited,SBD,M,
Boys,99.79,3,Ian Tello,Houston Spring Woods,99.79,161.03,92.99,174.63,428.64,Unlimited,SBD,M,
Boys,99.79,4,Aryan Komal,Fort Bend Elkins,99.79,174.63,74.84,165.56,415.04,Unlimited,SBD,M,
Boys,99.79,5,Matthew Torres,Waller,99.79,190.51,79.38,120.2,390.09,Unlimited,SBD,M,
Boys,99.79,6,Tim Berman,Houston Northbrook,92.99,147.42,79.38,158.76,385.55,Unlimited,SBD,M,
Boys,99.79,7,Ethan Ginn,Waller,99.79,142.88,74.84,142.88,360.61,Unlimited,SBD,M,
Boys,99.79,DQ,Leo Herrera,Houston Stratford,99.79,,,,,Unlimited,SBD,M,
Boys,109.77,1,Aiden Narcisse,Fort Bend Willowridge,109.77,188.24,124.74,185.97,498.95,Unlimited,SBD,M,
Boys,109.77,2,Eric Hernandez,Houston Northbrook,109.77,158.76,92.99,163.29,415.04,Unlimited,SBD,M,
Boys,109.77,3,Abdulaziz Kehinde,Fort Bend Willowridge,109.77,129.27,86.18,129.27,344.73,Unlimited,SBD,M,
Boys,124.74,1,Armando Castillo,Houston Stratford,124.74,229.06,142.88,204.12,576.06,Unlimited,SBD,M,
Boys,124.74,2,Elijah Bird,Fort Bend Elkins,124.74,179.17,108.86,165.56,453.59,Unlimited,SBD,M,
Boys,124.74,3,George Castillo,Houston Northbrook,124.74,90.72,70.31,136.08,297.1,Unlimited,SBD,M,
Boys,124.74,4,Fernando Deleon,Houston Northbrook,124.74,102.06,70.31,102.06,274.42,Unlimited,SBD,M,
Boys,124.74,5,Duncan Mcmluskey,Houston Stratford,124.74,83.91,47.63,92.99,224.53,Unlimited,SBD,M,
Boys,124.74,DQ,Jaden Gonzalez,Houston Northbrook,124.74,167.83,,,,Unlimited,SBD,M,
Boys,139.71,1,Tkai Ballard,Fort Bend Willowridge,139.71,226.8,142.88,213.19,582.87,Unlimited,SBD,M,
Boys,139.71,2,Roger Gentry,Fort Bend Elkins,139.71,165.56,122.47,154.22,442.25,Unlimited,SBD,M,
Boys,139.71,3,Bradli Harris,Houston Spring Woods,139.71,161.03,63.5,158.76,383.29,Unlimited,SBD,M,
Boys,139.71+,1,Siaosi Patton,Houston Spring Woods,140.61,249.48,136.08,231.33,616.89,Unlimited,SBD,M,
Boys,139.71+,2,Richard Grimes,Fort Bend Elkins,140.61,219.99,142.88,215.46,578.33,Unlimited,SBD,M,
Boys,139.71+,DQ,Ricky Adams,Fort Bend Willowridge,140.61,256.28,167.83,,,Unlimited,SBD,M,
Boys,139.71+,DQ,Luis Valasquez,Houston Northbrook,140.61,190.51,,,,Unlimited,SBD,M,
