Place,Name,Sex,BirthDate,Age,Equipment,Division,BodyweightKg,WeightClassKg,Squat1Kg,Squat2Kg,Squat3Kg,Best3SquatKg,Bench1Kg,Bench2Kg,Bench3Kg,Best3BenchKg,Deadlift1Kg,Deadlift2Kg,Deadlift3Kg,Deadlift4Kg,Best3DeadliftKg,TotalKg,Event
NS,Sarah MacQueen,F,1999-09-01,23,Wraps,J20-23,,,,,,,,,,,,,,,,,SBD
1,Casey King,F,1999-11-09,22,Wraps,J20-23,66.6,67.5,135,142.5,150,150,70,75,77.5,77.5,155,170,180,,180,407.5,SBD
2,Grace Hensley,F,2000-04-25,22,Wraps,J20-23,61.4,67.5,110,-117.5,117.5,117.5,57.5,-60,-60,57.5,110,117.5,122.5,,122.5,297.5,SBD
1,Katie Davies,F,2002-05-22,20,Wraps,J20-23,70,75,60,70,75,75,-42.5,42.5,-45,42.5,-85,85,-92.5,,85,202.5,SBD
1,Bec Crombie,F,1982-09-19,40,Wraps,M40-49,59.3,60,110,117.5,-125,117.5,55,60,62.5,62.5,120,132.5,-137.5,,132.5,312.5,SBD
1,Rebecca Christian,F,1978-07-26,44,Wraps,M40-49,74.2,75,-105,105,-110,105,60,62.5,-65,62.5,130,-135,,,130,297.5,SBD
1,Justene Priest,F,1975-11-23,46,Wraps,M40-49,110.8,90+,85,90,95,95,57.5,-62.5,62.5,62.5,110,120,130,,130,287.5,SBD
NS,Jemma Brown,F,1994-09-05,28,Wraps,Open,,,,,,,,,,,,,,,,,SBD
1,Amy McKenzie,F,1989-11-14,32,Wraps,Open,60,60,95,105,110,110,62.5,67.5,70,70,130,140,150,,150,330,SBD
1,Rebecca Plane,F,1997-03-31,25,Wraps,Open,63.6,67.5,80,90,-100,90,37.5,40,-45,40,95,105,112.5,,112.5,242.5,SBD
1,Sarah McCartney-Kallidis,F,1990-11-30,31,Wraps,Open,71.8,75,140,-150,-150,140,60,65,-67.5,65,150,165,175,,175,380,SBD
2,Jessica Madders,F,1990-09-26,32,Wraps,Open,73.7,75,120,130,140,140,70,-75,-77.5,70,150,155,162.5,,162.5,372.5,SBD
3,Kiana Puru,F,1996-06-23,26,Wraps,Open,74,75,-95,95,105,105,62.5,67.5,-72.5,67.5,120,132.5,142.5,,142.5,315,SBD
1,Stevie Templer-Long,F,1988-11-02,33,Wraps,Open,79.9,82.5,125,140,-150,140,67.5,75,-77.5,75,130,150,160,,160,375,SBD
2,Tahlia Ryder,F,1987-05-29,35,Wraps,Open,77.8,82.5,100,107.5,112.5,112.5,52.5,55,-57.5,55,115,130,140,,140,307.5,SBD
3,Emma Kemp,F,1985-09-16,37,Wraps,Open,80.5,82.5,85,95,105,105,55,62.5,67.5,67.5,110,125,135,,135,307.5,SBD
4,Taylor Ryall,F,1997-12-17,24,Wraps,Open,79.7,82.5,100,115,-125,115,45,50,55,55,110,120,130,,130,300,SBD
1,Jessica Nugent,F,1993-01-18,29,Wraps,Open,87.6,90,180,190,-200,190,75,80,-85,80,165,180,195,-200,195,465,SBD
2,Breana Evans,F,1998-04-07,24,Wraps,Open,84.5,90,100,120,-130,120,65,-75,-75,65,120,140,-150,,140,325,SBD
1,Gabrielle Grieves,F,1997-06-21,25,Wraps,Open,111.6,90+,145,160,175,175,60,67.5,72.5,72.5,155,165,180,,180,427.5,SBD
2,Emily Ratcliffe,F,1995-03-06,27,Wraps,Open,95.8,90+,135,150,-170,150,70,75,80,80,145,160,170,,170,400,SBD
3,Justice Bower,F,1995-12-06,26,Wraps,Open,91.4,90+,120,130,-140,130,57.5,65,-67.5,65,140,160,170,,170,365,SBD
4,Morgan McNair,F,1996-07-16,26,Wraps,Open,106,90+,117.5,125,135,135,65,67.5,72.5,72.5,125,135,147.5,,147.5,355,SBD
5,Sabella Gibson,F,1998-01-16,24,Wraps,Open,121.2,90+,100,110,-115,110,45,50,55,55,-100,110,120,,120,285,SBD
1,Zali Burcher,F,2005-10-19,17,Wraps,S17-19,63.4,67.5,60,65,70,70,37.5,40,-45,40,65,75,85,,85,195,SBD
1,Holly Moore,F,1990-11-14,31,Raw,Open,74.7,75,,,,,45,50,-55,50,95,115,120,,120,170,BD
1,Tori Evans,F,1994-09-13,28,Raw,Open,114.2,90+,,,,,65,70,-75,70,145,157.5,165,,165,235,BD
1,Emily Eleftheriou,F,2005-06-30,17,Raw,S17-19,52.9,56,,,,,35,37.5,45,45,,,,,,45,B
1,Mikayla Lay,F,1998-12-17,23,Raw,J20-23,59,60,,,,,,,,,100,107.5,110,,110,110,D
1,Katie Kocanda,F,1969-06-05,53,Raw,M50-59,54.2,56,,,,,,,,,110,115,125,,125,125,D
1,Mikayla Newman,F,1996-09-03,26,Raw,Open,65.7,67.5,,,,,,,,,140,150,-160,,150,150,D
1,Brittany Jones #1,F,1997-04-17,25,Raw,Open,80.1,82.5,,,,,,,,,110,120,130,,130,130,D
NS,Riley Gunton,M,2002-02-03,20,Wraps,J20-23,,,,,,,,,,,,,,,,,SBD
1,Jai Warrender,M,2000-10-15,22,Wraps,J20-23,74.6,75,155,165,175,175,95,105,-115,105,155,175,185,,185,465,SBD
1,Greg Sharp,M,1999-09-02,23,Wraps,J20-23,76.5,82.5,140,150,165,165,85,-95,-95,85,155,165,175,,175,425,SBD
1,Corey Hall,M,2000-03-19,22,Wraps,J20-23,88.7,90,180,190,200,200,125,-135,-135,125,245,255,-262.5,,255,580,SBD
1,Cody Wright,M,2001-01-04,21,Wraps,J20-23,97.1,100,200,220,230,230,105,115,120,120,230,250,260,,260,610,SBD
1,Kye Tiedemann,M,1999-03-17,23,Wraps,J20-23,107.2,110,235,250,262.5,262.5,162.5,-170,-175,162.5,232.5,255,270,,270,695,SBD
1,Ethan Bailey,M,2000-09-07,22,Wraps,J20-23,117.6,125,200,-217.5,-220,200,125,135,-140,135,220,245,-250,,245,580,SBD
2,Jackson Williamson,M,1999-12-12,22,Wraps,J20-23,123,125,150,160,180,180,110,120,130,130,205,220,235,,235,545,SBD
1,Murray Tomlinson,M,1982-01-01,40,Wraps,M40-49,113.8,125,-220,230,245,245,140,155,-170,155,260,280,-300,,280,680,SBD
NS,Ian Spiteri,M,1984-12-06,37,Wraps,Open,,,,,,,,,,,,,,,,,SBD
NS,Iswinder Singh,M,1987-11-28,34,Wraps,Open,,,,,,,,,,,,,,,,,SBD
1,Michael McMurtrie,M,1987-10-14,35,Wraps,Open,66.9,67.5,175,185,190,190,85,95,-100,95,170,185,-200,,185,470,SBD
2,Jake Smith #10,M,1997-02-17,25,Wraps,Open,66.8,67.5,130,140,-150,140,85,95,-105,95,145,155,-165,,155,390,SBD
1,Thomas Fabbri,M,1997-08-14,25,Wraps,Open,73,75,110,-125,130,130,70,80,-85,80,120,140,160,,160,370,SBD
2,Lurinda Vollmer,F,1995-10-29,27,Wraps,Open,68.2,75,50,60,-72.5,60,25,-35,35,35,75,90,-95,,90,185,SBD
1,Scott Cassidy,M,1997-12-10,24,Wraps,Open,82,82.5,185,-195,-195,185,100,-110,-110,100,220,240,250,,250,535,SBD
2,Juke Kelly,M,1997-11-01,24,Wraps,Open,78.8,82.5,135,-155,-155,135,70,85,-87.5,85,160,180,-190,,180,400,SBD
1,Jamie Stewart,M,1985-08-09,37,Wraps,Open,88.2,90,195,210,-220,210,-100,-100,100,100,200,210,-227.5,,210,520,SBD
2,Joe Throup,M,1994-09-08,28,Wraps,Open,89.3,90,145,-157.5,157.5,157.5,97.5,102.5,-107.5,102.5,210,225,-240,,225,485,SBD
3,Brenton Moore,M,1989-01-13,33,Wraps,Open,87.3,90,140,150,160,160,100,110,112.5,112.5,175,185,197.5,,197.5,470,SBD
4,Mitchell Prothero,M,1988-03-23,34,Wraps,Open,86.4,90,165,177.5,,177.5,-90,100,-110,100,170,180,190,,190,467.5,SBD
5,Rowan Hummerston,M,1993-01-09,29,Wraps,Open,89.5,90,130,145,-170,145,100,105,-112.5,105,170,190,-200,,190,440,SBD
DQ,Jack King,M,1996-07-18,26,Wraps,Open,89.4,90,-195,-195,-195,,105,110,-115,110,-195,205,-210,,205,,SBD
1,Stephen Ryan,M,1984-09-21,38,Wraps,Open,96.1,100,270,285,300,300,152.5,160,165,165,250,270,285,,285,750,SBD
2,Jack Hawker,M,1994-01-03,28,Wraps,Open,99.5,100,255,-270,275,275,160,170,-175,170,255,270,-275,,270,715,SBD
3,Aiden Maloney,M,1995-06-09,27,Wraps,Open,99.2,100,270,285,-300,285,135,142.5,-150,142.5,230,245,260,,260,687.5,SBD
4,Albert Campbell,M,1997-07-24,25,Wraps,Open,98.3,100,-240,240,-265,240,150,160,170,170,220,230,240,,240,650,SBD
1,Hugh Sliger,M,1987-03-13,35,Wraps,Open,109.2,110,270,280,,280,210,230,,230,280,290,,,290,800,SBD
2,Gavin Ratcliffe,M,1989-10-19,33,Wraps,Open,107.8,110,235,250,265,265,170,180,-185,180,260,275,285,,285,730,SBD
DQ,Daniel Blandford,M,1990-01-18,32,Wraps,Open,108.8,110,315,,,315,,,,,,,,,,,SBD
1,Jerry Alevras,M,1997-02-01,25,Wraps,Open,118,125,245,262.5,275,275,160,170,-180,170,240,262.5,272.5,,272.5,717.5,SBD
2,Adam Hall,M,1996-05-28,26,Wraps,Open,114.4,125,230,250,270,270,160,-175,-175,160,230,250,265,,265,695,SBD
3,Jack Daley,M,1991-09-29,31,Wraps,Open,125,125,180,210,220,220,125,132.5,140,140,200,225,240,,240,600,SBD
4,Benjamin Rosenberg,M,1987-06-11,35,Wraps,Open,117.2,125,155,165,180,180,100,112.5,-120,112.5,180,-190,195,,195,487.5,SBD
1,Joseph Whittaker,M,1985-10-20,37,Wraps,Open,145,140+,380,410,,410,250,260,,260,320,340,,,340,1010,SBD
1,John Mahlo,M,2005-07-25,17,Wraps,S17-19,67.4,67.5,145,165,175,175,85,100,-112.5,100,180,-200,-200,,180,455,SBD
1,Nicholas Christian,M,2008-04-18,14,Wraps,T14-16,54.1,56,85,90,95,95,-60,62.5,65,65,105,115,125,,125,285,SBD
1,Xavier Sligar,M,2006-05-15,16,Wraps,T14-16,98,100,-160,170,-180,170,100,-107.5,-107.5,100,185,192.5,-200,,192.5,462.5,SBD
1,Kayne Ziegler,M,2002-10-21,20,Raw,J20-23,74.8,75,,,,,70,90,-105,90,170,-185,200,,200,290,BD
NS,Crispian Lee,M,1976-07-25,46,Raw,M40-49,,,,,,,,,,,,,,,,,BD
1,Adam McInerney,M,1979-01-23,43,Raw,M40-49,108.6,110,,,,,-160,160,170,170,255,265,-275,,265,435,BD
1,Aaron Ratcliffe,M,1992-12-11,29,Raw,Open,93.8,100,,,,,-180,-180,180,180,220,240,260,,260,440,BD
1,Alex Smyth,M,2003-06-02,19,Raw,S17-19,82.3,82.5,,,,,80,-95,-105,80,185,195,210,,210,290,BD
1,John Orchard,M,1987-12-18,34,Raw,Open,139.4,140,,,,,200,-210,215,215,,,,,,215,B
1,Darren Tindall,M,1970-10-09,52,Raw,M50-59,175,140+,,,,,,,,,140,155,170,,170,170,D
1,Grant Carpenter,M,1995-09-06,27,Raw,Open,98.8,100,,,,,,,,,240,255,-270,,255,255,D
